-- Merging decision tree log ---
application
INJECTED from /Users/mzito/Desktop/projects/2022 Knowledge/DVT-Test/Flutter-Weather-App/android/app/src/main/AndroidManifest.xml:6:4-36:19
MERGED from [:geolocator_android] /Users/mzito/Desktop/projects/2022 Knowledge/DVT-Test/Flutter-Weather-App/build/geolocator_android/intermediates/merged_manifest/release/AndroidManifest.xml:9:5-15:19
MERGED from [:geolocator_android] /Users/mzito/Desktop/projects/2022 Knowledge/DVT-Test/Flutter-Weather-App/build/geolocator_android/intermediates/merged_manifest/release/AndroidManifest.xml:9:5-15:19
MERGED from [androidx.window:window:1.0.0-beta04] /Users/mzito/.gradle/caches/transforms-3/101f929c990b91a0ec99476176aa9a01/transformed/jetified-window-1.0.0-beta04/AndroidManifest.xml:24:5-31:19
MERGED from [androidx.window:window:1.0.0-beta04] /Users/mzito/.gradle/caches/transforms-3/101f929c990b91a0ec99476176aa9a01/transformed/jetified-window-1.0.0-beta04/AndroidManifest.xml:24:5-31:19
MERGED from [com.google.android.gms:play-services-location:17.0.0] /Users/mzito/.gradle/caches/transforms-3/03065d69118239002c3881c1812a7f5a/transformed/jetified-play-services-location-17.0.0/AndroidManifest.xml:7:5-20
MERGED from [com.google.android.gms:play-services-location:17.0.0] /Users/mzito/.gradle/caches/transforms-3/03065d69118239002c3881c1812a7f5a/transformed/jetified-play-services-location-17.0.0/AndroidManifest.xml:7:5-20
MERGED from [com.google.android.gms:play-services-base:17.0.0] /Users/mzito/.gradle/caches/transforms-3/bcccf0c65e7eea9d8b784440db3290a2/transformed/jetified-play-services-base-17.0.0/AndroidManifest.xml:22:5-27:19
MERGED from [com.google.android.gms:play-services-base:17.0.0] /Users/mzito/.gradle/caches/transforms-3/bcccf0c65e7eea9d8b784440db3290a2/transformed/jetified-play-services-base-17.0.0/AndroidManifest.xml:22:5-27:19
MERGED from [com.google.android.gms:play-services-places-placereport:17.0.0] /Users/mzito/.gradle/caches/transforms-3/cc7355472a08c63c8f7d615c8f46ba57/transformed/jetified-play-services-places-placereport-17.0.0/AndroidManifest.xml:22:5-20
MERGED from [com.google.android.gms:play-services-places-placereport:17.0.0] /Users/mzito/.gradle/caches/transforms-3/cc7355472a08c63c8f7d615c8f46ba57/transformed/jetified-play-services-places-placereport-17.0.0/AndroidManifest.xml:22:5-20
MERGED from [com.google.android.gms:play-services-tasks:17.0.0] /Users/mzito/.gradle/caches/transforms-3/41921a783491e0f885fc4624eb03d2b9/transformed/jetified-play-services-tasks-17.0.0/AndroidManifest.xml:7:5-20
MERGED from [com.google.android.gms:play-services-tasks:17.0.0] /Users/mzito/.gradle/caches/transforms-3/41921a783491e0f885fc4624eb03d2b9/transformed/jetified-play-services-tasks-17.0.0/AndroidManifest.xml:7:5-20
MERGED from [com.google.android.gms:play-services-basement:17.0.0] /Users/mzito/.gradle/caches/transforms-3/b5ff225b6bf34a55f27f61a16a75a1de/transformed/jetified-play-services-basement-17.0.0/AndroidManifest.xml:22:5-26:19
MERGED from [com.google.android.gms:play-services-basement:17.0.0] /Users/mzito/.gradle/caches/transforms-3/b5ff225b6bf34a55f27f61a16a75a1de/transformed/jetified-play-services-basement-17.0.0/AndroidManifest.xml:22:5-26:19
MERGED from [androidx.core:core:1.6.0] /Users/mzito/.gradle/caches/transforms-3/2672b7e0b6ae9ae9e3382791144b5326/transformed/core-1.6.0/AndroidManifest.xml:24:5-89
MERGED from [androidx.core:core:1.6.0] /Users/mzito/.gradle/caches/transforms-3/2672b7e0b6ae9ae9e3382791144b5326/transformed/core-1.6.0/AndroidManifest.xml:24:5-89
MERGED from [androidx.versionedparcelable:versionedparcelable:1.1.1] /Users/mzito/.gradle/caches/transforms-3/6c6ebb18812b70665ab1558aa182530c/transformed/versionedparcelable-1.1.1/AndroidManifest.xml:24:5-25:19
MERGED from [androidx.versionedparcelable:versionedparcelable:1.1.1] /Users/mzito/.gradle/caches/transforms-3/6c6ebb18812b70665ab1558aa182530c/transformed/versionedparcelable-1.1.1/AndroidManifest.xml:24:5-25:19
	android:appComponentFactory
		ADDED from [androidx.core:core:1.6.0] /Users/mzito/.gradle/caches/transforms-3/2672b7e0b6ae9ae9e3382791144b5326/transformed/core-1.6.0/AndroidManifest.xml:24:18-86
	android:label
		ADDED from /Users/mzito/Desktop/projects/2022 Knowledge/DVT-Test/Flutter-Weather-App/android/app/src/main/AndroidManifest.xml:7:9-36
	android:icon
		ADDED from /Users/mzito/Desktop/projects/2022 Knowledge/DVT-Test/Flutter-Weather-App/android/app/src/main/AndroidManifest.xml:9:9-43
	android:name
		INJECTED from /Users/mzito/Desktop/projects/2022 Knowledge/DVT-Test/Flutter-Weather-App/android/app/src/main/AndroidManifest.xml
		ADDED from /Users/mzito/Desktop/projects/2022 Knowledge/DVT-Test/Flutter-Weather-App/android/app/src/main/AndroidManifest.xml:8:9-42
manifest
ADDED from /Users/mzito/Desktop/projects/2022 Knowledge/DVT-Test/Flutter-Weather-App/android/app/src/main/AndroidManifest.xml:1:1-37:12
INJECTED from /Users/mzito/Desktop/projects/2022 Knowledge/DVT-Test/Flutter-Weather-App/android/app/src/main/AndroidManifest.xml:1:1-37:12
INJECTED from /Users/mzito/Desktop/projects/2022 Knowledge/DVT-Test/Flutter-Weather-App/android/app/src/main/AndroidManifest.xml:1:1-37:12
INJECTED from /Users/mzito/Desktop/projects/2022 Knowledge/DVT-Test/Flutter-Weather-App/android/app/src/main/AndroidManifest.xml:1:1-37:12
MERGED from [:shared_preferences_android] /Users/mzito/Desktop/projects/2022 Knowledge/DVT-Test/Flutter-Weather-App/build/shared_preferences_android/intermediates/merged_manifest/release/AndroidManifest.xml:2:1-7:12
MERGED from [:geolocator_android] /Users/mzito/Desktop/projects/2022 Knowledge/DVT-Test/Flutter-Weather-App/build/geolocator_android/intermediates/merged_manifest/release/AndroidManifest.xml:2:1-17:12
MERGED from [:integration_test] /Users/mzito/Desktop/projects/2022 Knowledge/DVT-Test/Flutter-Weather-App/build/integration_test/intermediates/merged_manifest/release/AndroidManifest.xml:7:1-12:12
MERGED from [:geocoding_android] /Users/mzito/Desktop/projects/2022 Knowledge/DVT-Test/Flutter-Weather-App/build/geocoding_android/intermediates/merged_manifest/release/AndroidManifest.xml:2:1-7:12
MERGED from [:fluttertoast] /Users/mzito/Desktop/projects/2022 Knowledge/DVT-Test/Flutter-Weather-App/build/fluttertoast/intermediates/merged_manifest/release/AndroidManifest.xml:2:1-7:12
MERGED from [:permission_handler] /Users/mzito/Desktop/projects/2022 Knowledge/DVT-Test/Flutter-Weather-App/build/permission_handler/intermediates/merged_manifest/release/AndroidManifest.xml:2:1-7:12
MERGED from [androidx.window:window-java:1.0.0-beta04] /Users/mzito/.gradle/caches/transforms-3/e8acb50000ad22c6b6327239ba782f3a/transformed/jetified-window-java-1.0.0-beta04/AndroidManifest.xml:17:1-23:12
MERGED from [androidx.window:window:1.0.0-beta04] /Users/mzito/.gradle/caches/transforms-3/101f929c990b91a0ec99476176aa9a01/transformed/jetified-window-1.0.0-beta04/AndroidManifest.xml:17:1-33:12
MERGED from [androidx.multidex:multidex:2.0.0] /Users/mzito/.gradle/caches/transforms-3/25c8e72535d38e63d3a480205ab18a51/transformed/multidex-2.0.0/AndroidManifest.xml:17:1-22:12
MERGED from [com.google.android.gms:play-services-location:17.0.0] /Users/mzito/.gradle/caches/transforms-3/03065d69118239002c3881c1812a7f5a/transformed/jetified-play-services-location-17.0.0/AndroidManifest.xml:2:1-9:12
MERGED from [com.google.android.gms:play-services-base:17.0.0] /Users/mzito/.gradle/caches/transforms-3/bcccf0c65e7eea9d8b784440db3290a2/transformed/jetified-play-services-base-17.0.0/AndroidManifest.xml:17:1-29:12
MERGED from [com.google.android.gms:play-services-places-placereport:17.0.0] /Users/mzito/.gradle/caches/transforms-3/cc7355472a08c63c8f7d615c8f46ba57/transformed/jetified-play-services-places-placereport-17.0.0/AndroidManifest.xml:17:1-24:12
MERGED from [com.google.android.gms:play-services-tasks:17.0.0] /Users/mzito/.gradle/caches/transforms-3/41921a783491e0f885fc4624eb03d2b9/transformed/jetified-play-services-tasks-17.0.0/AndroidManifest.xml:2:1-9:12
MERGED from [com.google.android.gms:play-services-basement:17.0.0] /Users/mzito/.gradle/caches/transforms-3/b5ff225b6bf34a55f27f61a16a75a1de/transformed/jetified-play-services-basement-17.0.0/AndroidManifest.xml:17:1-28:12
MERGED from [androidx.fragment:fragment:1.1.0] /Users/mzito/.gradle/caches/transforms-3/b0b9e7f332139a7c0dfdf6f6e1c65a62/transformed/fragment-1.1.0/AndroidManifest.xml:17:1-24:12
MERGED from [androidx.viewpager:viewpager:1.0.0] /Users/mzito/.gradle/caches/transforms-3/c5339d3db406b1137920bc4285faab73/transformed/viewpager-1.0.0/AndroidManifest.xml:17:1-22:12
MERGED from [androidx.loader:loader:1.0.0] /Users/mzito/.gradle/caches/transforms-3/6a2c87a334cd8333d929918b036bde1c/transformed/loader-1.0.0/AndroidManifest.xml:17:1-22:12
MERGED from [androidx.activity:activity:1.0.0] /Users/mzito/.gradle/caches/transforms-3/6766fb123a1651b2d4ab4d7d7fcba788/transformed/jetified-activity-1.0.0/AndroidManifest.xml:17:1-24:12
MERGED from [androidx.customview:customview:1.0.0] /Users/mzito/.gradle/caches/transforms-3/fbc8d7fc981b98ac013e8e47418f6ad6/transformed/customview-1.0.0/AndroidManifest.xml:17:1-22:12
MERGED from [androidx.core:core:1.6.0] /Users/mzito/.gradle/caches/transforms-3/2672b7e0b6ae9ae9e3382791144b5326/transformed/core-1.6.0/AndroidManifest.xml:17:1-26:12
MERGED from [androidx.test:rules:1.2.0] /Users/mzito/.gradle/caches/transforms-3/15f37b32f5819d611dc3549855b1868d/transformed/rules-1.2.0/AndroidManifest.xml:17:1-24:12
MERGED from [androidx.test.espresso:espresso-core:3.2.0] /Users/mzito/.gradle/caches/transforms-3/4f50b0a7cc72abcd4c5ab688ec59f0c1/transformed/espresso-core-3.2.0/AndroidManifest.xml:17:1-24:12
MERGED from [androidx.test:runner:1.2.0] /Users/mzito/.gradle/caches/transforms-3/703ccf85608194537e19bb7f7dc1e8c9/transformed/runner-1.2.0/AndroidManifest.xml:17:1-24:12
MERGED from [androidx.lifecycle:lifecycle-runtime:2.2.0] /Users/mzito/.gradle/caches/transforms-3/874dc91669f671d162995a381d9ec9d1/transformed/lifecycle-runtime-2.2.0/AndroidManifest.xml:17:1-24:12
MERGED from [androidx.savedstate:savedstate:1.0.0] /Users/mzito/.gradle/caches/transforms-3/6b5a90a442335809ecb5452e0131bf13/transformed/jetified-savedstate-1.0.0/AndroidManifest.xml:17:1-24:12
MERGED from [androidx.lifecycle:lifecycle-livedata:2.0.0] /Users/mzito/.gradle/caches/transforms-3/8182c1bbbca61bb31823f22e30a07df7/transformed/lifecycle-livedata-2.0.0/AndroidManifest.xml:17:1-22:12
MERGED from [androidx.lifecycle:lifecycle-livedata-core:2.0.0] /Users/mzito/.gradle/caches/transforms-3/8dc6658e19ddf55ab16c1bee47820608/transformed/lifecycle-livedata-core-2.0.0/AndroidManifest.xml:17:1-22:12
MERGED from [androidx.tracing:tracing:1.0.0] /Users/mzito/.gradle/caches/transforms-3/4fbbabdacad43ad74453dba03aa00dff/transformed/jetified-tracing-1.0.0/AndroidManifest.xml:17:1-24:12
MERGED from [androidx.test:monitor:1.2.0] /Users/mzito/.gradle/caches/transforms-3/4bb063392d701e61bde1e4255c6bb83a/transformed/monitor-1.2.0/AndroidManifest.xml:17:1-24:12
MERGED from [androidx.versionedparcelable:versionedparcelable:1.1.1] /Users/mzito/.gradle/caches/transforms-3/6c6ebb18812b70665ab1558aa182530c/transformed/versionedparcelable-1.1.1/AndroidManifest.xml:17:1-27:12
MERGED from [androidx.arch.core:core-runtime:2.0.0] /Users/mzito/.gradle/caches/transforms-3/88f0826844b33d3aefba120ab79d894f/transformed/core-runtime-2.0.0/AndroidManifest.xml:17:1-22:12
MERGED from [androidx.lifecycle:lifecycle-viewmodel:2.1.0] /Users/mzito/.gradle/caches/transforms-3/c1cf4e2e7833b6b3e79bcf9eaa95ff40/transformed/lifecycle-viewmodel-2.1.0/AndroidManifest.xml:17:1-22:12
MERGED from [androidx.test.espresso:espresso-idling-resource:3.2.0] /Users/mzito/.gradle/caches/transforms-3/fa9ce31883c6a6c5c5599316d1eb4c3a/transformed/espresso-idling-resource-3.2.0/AndroidManifest.xml:17:1-24:12
MERGED from [androidx.annotation:annotation-experimental:1.1.0] /Users/mzito/.gradle/caches/transforms-3/091e8447f7a110e36d7782a84056d723/transformed/jetified-annotation-experimental-1.1.0/AndroidManifest.xml:17:1-24:12
INJECTED from /Users/mzito/Desktop/projects/2022 Knowledge/DVT-Test/Flutter-Weather-App/android/app/src/main/AndroidManifest.xml:1:1-37:12
INJECTED from /Users/mzito/Desktop/projects/2022 Knowledge/DVT-Test/Flutter-Weather-App/android/app/src/main/AndroidManifest.xml:1:1-37:12
INJECTED from /Users/mzito/Desktop/projects/2022 Knowledge/DVT-Test/Flutter-Weather-App/android/app/src/main/AndroidManifest.xml:1:1-37:12
	package
		ADDED from /Users/mzito/Desktop/projects/2022 Knowledge/DVT-Test/Flutter-Weather-App/android/app/src/main/AndroidManifest.xml:2:5-38
		INJECTED from /Users/mzito/Desktop/projects/2022 Knowledge/DVT-Test/Flutter-Weather-App/android/app/src/main/AndroidManifest.xml
		INJECTED from /Users/mzito/Desktop/projects/2022 Knowledge/DVT-Test/Flutter-Weather-App/android/app/src/main/AndroidManifest.xml
	android:versionName
		INJECTED from /Users/mzito/Desktop/projects/2022 Knowledge/DVT-Test/Flutter-Weather-App/android/app/src/main/AndroidManifest.xml
		ADDED from /Users/mzito/Desktop/projects/2022 Knowledge/DVT-Test/Flutter-Weather-App/android/app/src/main/AndroidManifest.xml:1:1-37:12
		INJECTED from /Users/mzito/Desktop/projects/2022 Knowledge/DVT-Test/Flutter-Weather-App/android/app/src/main/AndroidManifest.xml
	android:versionCode
		INJECTED from /Users/mzito/Desktop/projects/2022 Knowledge/DVT-Test/Flutter-Weather-App/android/app/src/main/AndroidManifest.xml
		ADDED from /Users/mzito/Desktop/projects/2022 Knowledge/DVT-Test/Flutter-Weather-App/android/app/src/main/AndroidManifest.xml:1:1-37:12
		INJECTED from /Users/mzito/Desktop/projects/2022 Knowledge/DVT-Test/Flutter-Weather-App/android/app/src/main/AndroidManifest.xml
	xmlns:android
		ADDED from /Users/mzito/Desktop/projects/2022 Knowledge/DVT-Test/Flutter-Weather-App/android/app/src/main/AndroidManifest.xml:1:11-69
uses-permission#android.permission.INTERNET
ADDED from /Users/mzito/Desktop/projects/2022 Knowledge/DVT-Test/Flutter-Weather-App/android/app/src/main/AndroidManifest.xml:3:5-66
	android:name
		ADDED from /Users/mzito/Desktop/projects/2022 Knowledge/DVT-Test/Flutter-Weather-App/android/app/src/main/AndroidManifest.xml:3:22-64
uses-permission#android.permission.ACCESS_FINE_LOCATION
ADDED from /Users/mzito/Desktop/projects/2022 Knowledge/DVT-Test/Flutter-Weather-App/android/app/src/main/AndroidManifest.xml:4:5-79
	android:name
		ADDED from /Users/mzito/Desktop/projects/2022 Knowledge/DVT-Test/Flutter-Weather-App/android/app/src/main/AndroidManifest.xml:4:22-76
uses-permission#android.permission.ACCESS_COARSE_LOCATION
ADDED from /Users/mzito/Desktop/projects/2022 Knowledge/DVT-Test/Flutter-Weather-App/android/app/src/main/AndroidManifest.xml:5:5-81
	android:name
		ADDED from /Users/mzito/Desktop/projects/2022 Knowledge/DVT-Test/Flutter-Weather-App/android/app/src/main/AndroidManifest.xml:5:22-78
uses-sdk
INJECTED from /Users/mzito/Desktop/projects/2022 Knowledge/DVT-Test/Flutter-Weather-App/android/app/src/main/AndroidManifest.xml reason: use-sdk injection requested
INJECTED from /Users/mzito/Desktop/projects/2022 Knowledge/DVT-Test/Flutter-Weather-App/android/app/src/main/AndroidManifest.xml
INJECTED from /Users/mzito/Desktop/projects/2022 Knowledge/DVT-Test/Flutter-Weather-App/android/app/src/main/AndroidManifest.xml
MERGED from [:shared_preferences_android] /Users/mzito/Desktop/projects/2022 Knowledge/DVT-Test/Flutter-Weather-App/build/shared_preferences_android/intermediates/merged_manifest/release/AndroidManifest.xml:5:5-44
MERGED from [:shared_preferences_android] /Users/mzito/Desktop/projects/2022 Knowledge/DVT-Test/Flutter-Weather-App/build/shared_preferences_android/intermediates/merged_manifest/release/AndroidManifest.xml:5:5-44
MERGED from [:geolocator_android] /Users/mzito/Desktop/projects/2022 Knowledge/DVT-Test/Flutter-Weather-App/build/geolocator_android/intermediates/merged_manifest/release/AndroidManifest.xml:5:5-44
MERGED from [:geolocator_android] /Users/mzito/Desktop/projects/2022 Knowledge/DVT-Test/Flutter-Weather-App/build/geolocator_android/intermediates/merged_manifest/release/AndroidManifest.xml:5:5-44
MERGED from [:integration_test] /Users/mzito/Desktop/projects/2022 Knowledge/DVT-Test/Flutter-Weather-App/build/integration_test/intermediates/merged_manifest/release/AndroidManifest.xml:10:5-44
MERGED from [:integration_test] /Users/mzito/Desktop/projects/2022 Knowledge/DVT-Test/Flutter-Weather-App/build/integration_test/intermediates/merged_manifest/release/AndroidManifest.xml:10:5-44
MERGED from [:geocoding_android] /Users/mzito/Desktop/projects/2022 Knowledge/DVT-Test/Flutter-Weather-App/build/geocoding_android/intermediates/merged_manifest/release/AndroidManifest.xml:5:5-44
MERGED from [:geocoding_android] /Users/mzito/Desktop/projects/2022 Knowledge/DVT-Test/Flutter-Weather-App/build/geocoding_android/intermediates/merged_manifest/release/AndroidManifest.xml:5:5-44
MERGED from [:fluttertoast] /Users/mzito/Desktop/projects/2022 Knowledge/DVT-Test/Flutter-Weather-App/build/fluttertoast/intermediates/merged_manifest/release/AndroidManifest.xml:5:5-44
MERGED from [:fluttertoast] /Users/mzito/Desktop/projects/2022 Knowledge/DVT-Test/Flutter-Weather-App/build/fluttertoast/intermediates/merged_manifest/release/AndroidManifest.xml:5:5-44
MERGED from [:permission_handler] /Users/mzito/Desktop/projects/2022 Knowledge/DVT-Test/Flutter-Weather-App/build/permission_handler/intermediates/merged_manifest/release/AndroidManifest.xml:5:5-44
MERGED from [:permission_handler] /Users/mzito/Desktop/projects/2022 Knowledge/DVT-Test/Flutter-Weather-App/build/permission_handler/intermediates/merged_manifest/release/AndroidManifest.xml:5:5-44
MERGED from [androidx.window:window-java:1.0.0-beta04] /Users/mzito/.gradle/caches/transforms-3/e8acb50000ad22c6b6327239ba782f3a/transformed/jetified-window-java-1.0.0-beta04/AndroidManifest.xml:19:5-21:41
MERGED from [androidx.window:window-java:1.0.0-beta04] /Users/mzito/.gradle/caches/transforms-3/e8acb50000ad22c6b6327239ba782f3a/transformed/jetified-window-java-1.0.0-beta04/AndroidManifest.xml:19:5-21:41
MERGED from [androidx.window:window:1.0.0-beta04] /Users/mzito/.gradle/caches/transforms-3/101f929c990b91a0ec99476176aa9a01/transformed/jetified-window-1.0.0-beta04/AndroidManifest.xml:20:5-22:41
MERGED from [androidx.window:window:1.0.0-beta04] /Users/mzito/.gradle/caches/transforms-3/101f929c990b91a0ec99476176aa9a01/transformed/jetified-window-1.0.0-beta04/AndroidManifest.xml:20:5-22:41
MERGED from [androidx.multidex:multidex:2.0.0] /Users/mzito/.gradle/caches/transforms-3/25c8e72535d38e63d3a480205ab18a51/transformed/multidex-2.0.0/AndroidManifest.xml:20:5-43
MERGED from [androidx.multidex:multidex:2.0.0] /Users/mzito/.gradle/caches/transforms-3/25c8e72535d38e63d3a480205ab18a51/transformed/multidex-2.0.0/AndroidManifest.xml:20:5-43
MERGED from [com.google.android.gms:play-services-location:17.0.0] /Users/mzito/.gradle/caches/transforms-3/03065d69118239002c3881c1812a7f5a/transformed/jetified-play-services-location-17.0.0/AndroidManifest.xml:5:5-44
MERGED from [com.google.android.gms:play-services-location:17.0.0] /Users/mzito/.gradle/caches/transforms-3/03065d69118239002c3881c1812a7f5a/transformed/jetified-play-services-location-17.0.0/AndroidManifest.xml:5:5-44
MERGED from [com.google.android.gms:play-services-base:17.0.0] /Users/mzito/.gradle/caches/transforms-3/bcccf0c65e7eea9d8b784440db3290a2/transformed/jetified-play-services-base-17.0.0/AndroidManifest.xml:20:5-44
MERGED from [com.google.android.gms:play-services-base:17.0.0] /Users/mzito/.gradle/caches/transforms-3/bcccf0c65e7eea9d8b784440db3290a2/transformed/jetified-play-services-base-17.0.0/AndroidManifest.xml:20:5-44
MERGED from [com.google.android.gms:play-services-places-placereport:17.0.0] /Users/mzito/.gradle/caches/transforms-3/cc7355472a08c63c8f7d615c8f46ba57/transformed/jetified-play-services-places-placereport-17.0.0/AndroidManifest.xml:20:5-44
MERGED from [com.google.android.gms:play-services-places-placereport:17.0.0] /Users/mzito/.gradle/caches/transforms-3/cc7355472a08c63c8f7d615c8f46ba57/transformed/jetified-play-services-places-placereport-17.0.0/AndroidManifest.xml:20:5-44
MERGED from [com.google.android.gms:play-services-tasks:17.0.0] /Users/mzito/.gradle/caches/transforms-3/41921a783491e0f885fc4624eb03d2b9/transformed/jetified-play-services-tasks-17.0.0/AndroidManifest.xml:5:5-44
MERGED from [com.google.android.gms:play-services-tasks:17.0.0] /Users/mzito/.gradle/caches/transforms-3/41921a783491e0f885fc4624eb03d2b9/transformed/jetified-play-services-tasks-17.0.0/AndroidManifest.xml:5:5-44
MERGED from [com.google.android.gms:play-services-basement:17.0.0] /Users/mzito/.gradle/caches/transforms-3/b5ff225b6bf34a55f27f61a16a75a1de/transformed/jetified-play-services-basement-17.0.0/AndroidManifest.xml:20:5-44
MERGED from [com.google.android.gms:play-services-basement:17.0.0] /Users/mzito/.gradle/caches/transforms-3/b5ff225b6bf34a55f27f61a16a75a1de/transformed/jetified-play-services-basement-17.0.0/AndroidManifest.xml:20:5-44
MERGED from [androidx.fragment:fragment:1.1.0] /Users/mzito/.gradle/caches/transforms-3/b0b9e7f332139a7c0dfdf6f6e1c65a62/transformed/fragment-1.1.0/AndroidManifest.xml:20:5-22:41
MERGED from [androidx.fragment:fragment:1.1.0] /Users/mzito/.gradle/caches/transforms-3/b0b9e7f332139a7c0dfdf6f6e1c65a62/transformed/fragment-1.1.0/AndroidManifest.xml:20:5-22:41
MERGED from [androidx.viewpager:viewpager:1.0.0] /Users/mzito/.gradle/caches/transforms-3/c5339d3db406b1137920bc4285faab73/transformed/viewpager-1.0.0/AndroidManifest.xml:20:5-44
MERGED from [androidx.viewpager:viewpager:1.0.0] /Users/mzito/.gradle/caches/transforms-3/c5339d3db406b1137920bc4285faab73/transformed/viewpager-1.0.0/AndroidManifest.xml:20:5-44
MERGED from [androidx.loader:loader:1.0.0] /Users/mzito/.gradle/caches/transforms-3/6a2c87a334cd8333d929918b036bde1c/transformed/loader-1.0.0/AndroidManifest.xml:20:5-44
MERGED from [androidx.loader:loader:1.0.0] /Users/mzito/.gradle/caches/transforms-3/6a2c87a334cd8333d929918b036bde1c/transformed/loader-1.0.0/AndroidManifest.xml:20:5-44
MERGED from [androidx.activity:activity:1.0.0] /Users/mzito/.gradle/caches/transforms-3/6766fb123a1651b2d4ab4d7d7fcba788/transformed/jetified-activity-1.0.0/AndroidManifest.xml:20:5-22:41
MERGED from [androidx.activity:activity:1.0.0] /Users/mzito/.gradle/caches/transforms-3/6766fb123a1651b2d4ab4d7d7fcba788/transformed/jetified-activity-1.0.0/AndroidManifest.xml:20:5-22:41
MERGED from [androidx.customview:customview:1.0.0] /Users/mzito/.gradle/caches/transforms-3/fbc8d7fc981b98ac013e8e47418f6ad6/transformed/customview-1.0.0/AndroidManifest.xml:20:5-44
MERGED from [androidx.customview:customview:1.0.0] /Users/mzito/.gradle/caches/transforms-3/fbc8d7fc981b98ac013e8e47418f6ad6/transformed/customview-1.0.0/AndroidManifest.xml:20:5-44
MERGED from [androidx.core:core:1.6.0] /Users/mzito/.gradle/caches/transforms-3/2672b7e0b6ae9ae9e3382791144b5326/transformed/core-1.6.0/AndroidManifest.xml:20:5-22:41
MERGED from [androidx.core:core:1.6.0] /Users/mzito/.gradle/caches/transforms-3/2672b7e0b6ae9ae9e3382791144b5326/transformed/core-1.6.0/AndroidManifest.xml:20:5-22:41
MERGED from [androidx.test:rules:1.2.0] /Users/mzito/.gradle/caches/transforms-3/15f37b32f5819d611dc3549855b1868d/transformed/rules-1.2.0/AndroidManifest.xml:20:5-22:41
MERGED from [androidx.test:rules:1.2.0] /Users/mzito/.gradle/caches/transforms-3/15f37b32f5819d611dc3549855b1868d/transformed/rules-1.2.0/AndroidManifest.xml:20:5-22:41
MERGED from [androidx.test.espresso:espresso-core:3.2.0] /Users/mzito/.gradle/caches/transforms-3/4f50b0a7cc72abcd4c5ab688ec59f0c1/transformed/espresso-core-3.2.0/AndroidManifest.xml:20:5-22:41
MERGED from [androidx.test.espresso:espresso-core:3.2.0] /Users/mzito/.gradle/caches/transforms-3/4f50b0a7cc72abcd4c5ab688ec59f0c1/transformed/espresso-core-3.2.0/AndroidManifest.xml:20:5-22:41
MERGED from [androidx.test:runner:1.2.0] /Users/mzito/.gradle/caches/transforms-3/703ccf85608194537e19bb7f7dc1e8c9/transformed/runner-1.2.0/AndroidManifest.xml:20:5-22:41
MERGED from [androidx.test:runner:1.2.0] /Users/mzito/.gradle/caches/transforms-3/703ccf85608194537e19bb7f7dc1e8c9/transformed/runner-1.2.0/AndroidManifest.xml:20:5-22:41
MERGED from [androidx.lifecycle:lifecycle-runtime:2.2.0] /Users/mzito/.gradle/caches/transforms-3/874dc91669f671d162995a381d9ec9d1/transformed/lifecycle-runtime-2.2.0/AndroidManifest.xml:20:5-22:41
MERGED from [androidx.lifecycle:lifecycle-runtime:2.2.0] /Users/mzito/.gradle/caches/transforms-3/874dc91669f671d162995a381d9ec9d1/transformed/lifecycle-runtime-2.2.0/AndroidManifest.xml:20:5-22:41
MERGED from [androidx.savedstate:savedstate:1.0.0] /Users/mzito/.gradle/caches/transforms-3/6b5a90a442335809ecb5452e0131bf13/transformed/jetified-savedstate-1.0.0/AndroidManifest.xml:20:5-22:41
MERGED from [androidx.savedstate:savedstate:1.0.0] /Users/mzito/.gradle/caches/transforms-3/6b5a90a442335809ecb5452e0131bf13/transformed/jetified-savedstate-1.0.0/AndroidManifest.xml:20:5-22:41
MERGED from [androidx.lifecycle:lifecycle-livedata:2.0.0] /Users/mzito/.gradle/caches/transforms-3/8182c1bbbca61bb31823f22e30a07df7/transformed/lifecycle-livedata-2.0.0/AndroidManifest.xml:20:5-44
MERGED from [androidx.lifecycle:lifecycle-livedata:2.0.0] /Users/mzito/.gradle/caches/transforms-3/8182c1bbbca61bb31823f22e30a07df7/transformed/lifecycle-livedata-2.0.0/AndroidManifest.xml:20:5-44
MERGED from [androidx.lifecycle:lifecycle-livedata-core:2.0.0] /Users/mzito/.gradle/caches/transforms-3/8dc6658e19ddf55ab16c1bee47820608/transformed/lifecycle-livedata-core-2.0.0/AndroidManifest.xml:20:5-44
MERGED from [androidx.lifecycle:lifecycle-livedata-core:2.0.0] /Users/mzito/.gradle/caches/transforms-3/8dc6658e19ddf55ab16c1bee47820608/transformed/lifecycle-livedata-core-2.0.0/AndroidManifest.xml:20:5-44
MERGED from [androidx.tracing:tracing:1.0.0] /Users/mzito/.gradle/caches/transforms-3/4fbbabdacad43ad74453dba03aa00dff/transformed/jetified-tracing-1.0.0/AndroidManifest.xml:20:5-22:41
MERGED from [androidx.tracing:tracing:1.0.0] /Users/mzito/.gradle/caches/transforms-3/4fbbabdacad43ad74453dba03aa00dff/transformed/jetified-tracing-1.0.0/AndroidManifest.xml:20:5-22:41
MERGED from [androidx.test:monitor:1.2.0] /Users/mzito/.gradle/caches/transforms-3/4bb063392d701e61bde1e4255c6bb83a/transformed/monitor-1.2.0/AndroidManifest.xml:20:5-22:41
MERGED from [androidx.test:monitor:1.2.0] /Users/mzito/.gradle/caches/transforms-3/4bb063392d701e61bde1e4255c6bb83a/transformed/monitor-1.2.0/AndroidManifest.xml:20:5-22:41
MERGED from [androidx.versionedparcelable:versionedparcelable:1.1.1] /Users/mzito/.gradle/caches/transforms-3/6c6ebb18812b70665ab1558aa182530c/transformed/versionedparcelable-1.1.1/AndroidManifest.xml:20:5-22:41
MERGED from [androidx.versionedparcelable:versionedparcelable:1.1.1] /Users/mzito/.gradle/caches/transforms-3/6c6ebb18812b70665ab1558aa182530c/transformed/versionedparcelable-1.1.1/AndroidManifest.xml:20:5-22:41
MERGED from [androidx.arch.core:core-runtime:2.0.0] /Users/mzito/.gradle/caches/transforms-3/88f0826844b33d3aefba120ab79d894f/transformed/core-runtime-2.0.0/AndroidManifest.xml:20:5-44
MERGED from [androidx.arch.core:core-runtime:2.0.0] /Users/mzito/.gradle/caches/transforms-3/88f0826844b33d3aefba120ab79d894f/transformed/core-runtime-2.0.0/AndroidManifest.xml:20:5-44
MERGED from [androidx.lifecycle:lifecycle-viewmodel:2.1.0] /Users/mzito/.gradle/caches/transforms-3/c1cf4e2e7833b6b3e79bcf9eaa95ff40/transformed/lifecycle-viewmodel-2.1.0/AndroidManifest.xml:20:5-44
MERGED from [androidx.lifecycle:lifecycle-viewmodel:2.1.0] /Users/mzito/.gradle/caches/transforms-3/c1cf4e2e7833b6b3e79bcf9eaa95ff40/transformed/lifecycle-viewmodel-2.1.0/AndroidManifest.xml:20:5-44
MERGED from [androidx.test.espresso:espresso-idling-resource:3.2.0] /Users/mzito/.gradle/caches/transforms-3/fa9ce31883c6a6c5c5599316d1eb4c3a/transformed/espresso-idling-resource-3.2.0/AndroidManifest.xml:20:5-22:41
MERGED from [androidx.test.espresso:espresso-idling-resource:3.2.0] /Users/mzito/.gradle/caches/transforms-3/fa9ce31883c6a6c5c5599316d1eb4c3a/transformed/espresso-idling-resource-3.2.0/AndroidManifest.xml:20:5-22:41
MERGED from [androidx.annotation:annotation-experimental:1.1.0] /Users/mzito/.gradle/caches/transforms-3/091e8447f7a110e36d7782a84056d723/transformed/jetified-annotation-experimental-1.1.0/AndroidManifest.xml:20:5-22:41
MERGED from [androidx.annotation:annotation-experimental:1.1.0] /Users/mzito/.gradle/caches/transforms-3/091e8447f7a110e36d7782a84056d723/transformed/jetified-annotation-experimental-1.1.0/AndroidManifest.xml:20:5-22:41
INJECTED from /Users/mzito/Desktop/projects/2022 Knowledge/DVT-Test/Flutter-Weather-App/android/app/src/main/AndroidManifest.xml
INJECTED from /Users/mzito/Desktop/projects/2022 Knowledge/DVT-Test/Flutter-Weather-App/android/app/src/main/AndroidManifest.xml
	android:targetSdkVersion
		INJECTED from /Users/mzito/Desktop/projects/2022 Knowledge/DVT-Test/Flutter-Weather-App/android/app/src/main/AndroidManifest.xml
		ADDED from /Users/mzito/Desktop/projects/2022 Knowledge/DVT-Test/Flutter-Weather-App/android/app/src/main/AndroidManifest.xml
		INJECTED from /Users/mzito/Desktop/projects/2022 Knowledge/DVT-Test/Flutter-Weather-App/android/app/src/main/AndroidManifest.xml
	android:minSdkVersion
		INJECTED from /Users/mzito/Desktop/projects/2022 Knowledge/DVT-Test/Flutter-Weather-App/android/app/src/main/AndroidManifest.xml
		ADDED from /Users/mzito/Desktop/projects/2022 Knowledge/DVT-Test/Flutter-Weather-App/android/app/src/main/AndroidManifest.xml
		INJECTED from /Users/mzito/Desktop/projects/2022 Knowledge/DVT-Test/Flutter-Weather-App/android/app/src/main/AndroidManifest.xml
activity#com.example.weather_app.MainActivity
ADDED from /Users/mzito/Desktop/projects/2022 Knowledge/DVT-Test/Flutter-Weather-App/android/app/src/main/AndroidManifest.xml:10:9-30:20
	android:launchMode
		ADDED from /Users/mzito/Desktop/projects/2022 Knowledge/DVT-Test/Flutter-Weather-App/android/app/src/main/AndroidManifest.xml:13:13-43
	android:hardwareAccelerated
		ADDED from /Users/mzito/Desktop/projects/2022 Knowledge/DVT-Test/Flutter-Weather-App/android/app/src/main/AndroidManifest.xml:16:13-47
	android:windowSoftInputMode
		ADDED from /Users/mzito/Desktop/projects/2022 Knowledge/DVT-Test/Flutter-Weather-App/android/app/src/main/AndroidManifest.xml:17:13-55
	android:exported
		ADDED from /Users/mzito/Desktop/projects/2022 Knowledge/DVT-Test/Flutter-Weather-App/android/app/src/main/AndroidManifest.xml:12:13-36
	android:configChanges
		ADDED from /Users/mzito/Desktop/projects/2022 Knowledge/DVT-Test/Flutter-Weather-App/android/app/src/main/AndroidManifest.xml:15:13-163
	android:theme
		ADDED from /Users/mzito/Desktop/projects/2022 Knowledge/DVT-Test/Flutter-Weather-App/android/app/src/main/AndroidManifest.xml:14:13-47
	android:name
		ADDED from /Users/mzito/Desktop/projects/2022 Knowledge/DVT-Test/Flutter-Weather-App/android/app/src/main/AndroidManifest.xml:11:13-41
meta-data#io.flutter.embedding.android.NormalTheme
ADDED from /Users/mzito/Desktop/projects/2022 Knowledge/DVT-Test/Flutter-Weather-App/android/app/src/main/AndroidManifest.xml:22:13-25:17
	android:resource
		ADDED from /Users/mzito/Desktop/projects/2022 Knowledge/DVT-Test/Flutter-Weather-App/android/app/src/main/AndroidManifest.xml:24:15-52
	android:name
		ADDED from /Users/mzito/Desktop/projects/2022 Knowledge/DVT-Test/Flutter-Weather-App/android/app/src/main/AndroidManifest.xml:23:15-70
intent-filter#action:name:android.intent.action.MAIN+category:name:android.intent.category.LAUNCHER
ADDED from /Users/mzito/Desktop/projects/2022 Knowledge/DVT-Test/Flutter-Weather-App/android/app/src/main/AndroidManifest.xml:26:13-29:29
action#android.intent.action.MAIN
ADDED from /Users/mzito/Desktop/projects/2022 Knowledge/DVT-Test/Flutter-Weather-App/android/app/src/main/AndroidManifest.xml:27:17-68
	android:name
		ADDED from /Users/mzito/Desktop/projects/2022 Knowledge/DVT-Test/Flutter-Weather-App/android/app/src/main/AndroidManifest.xml:27:25-66
category#android.intent.category.LAUNCHER
ADDED from /Users/mzito/Desktop/projects/2022 Knowledge/DVT-Test/Flutter-Weather-App/android/app/src/main/AndroidManifest.xml:28:17-76
	android:name
		ADDED from /Users/mzito/Desktop/projects/2022 Knowledge/DVT-Test/Flutter-Weather-App/android/app/src/main/AndroidManifest.xml:28:27-74
meta-data#flutterEmbedding
ADDED from /Users/mzito/Desktop/projects/2022 Knowledge/DVT-Test/Flutter-Weather-App/android/app/src/main/AndroidManifest.xml:33:9-35:33
	android:value
		ADDED from /Users/mzito/Desktop/projects/2022 Knowledge/DVT-Test/Flutter-Weather-App/android/app/src/main/AndroidManifest.xml:35:13-30
	android:name
		ADDED from /Users/mzito/Desktop/projects/2022 Knowledge/DVT-Test/Flutter-Weather-App/android/app/src/main/AndroidManifest.xml:34:13-44
uses-permission#android.permission.FOREGROUND_SERVICE
ADDED from [:geolocator_android] /Users/mzito/Desktop/projects/2022 Knowledge/DVT-Test/Flutter-Weather-App/build/geolocator_android/intermediates/merged_manifest/release/AndroidManifest.xml:7:5-77
	android:name
		ADDED from [:geolocator_android] /Users/mzito/Desktop/projects/2022 Knowledge/DVT-Test/Flutter-Weather-App/build/geolocator_android/intermediates/merged_manifest/release/AndroidManifest.xml:7:22-74
service#com.baseflow.geolocator.GeolocatorLocationService
ADDED from [:geolocator_android] /Users/mzito/Desktop/projects/2022 Knowledge/DVT-Test/Flutter-Weather-App/build/geolocator_android/intermediates/merged_manifest/release/AndroidManifest.xml:10:9-14:56
	android:enabled
		ADDED from [:geolocator_android] /Users/mzito/Desktop/projects/2022 Knowledge/DVT-Test/Flutter-Weather-App/build/geolocator_android/intermediates/merged_manifest/release/AndroidManifest.xml:12:13-35
	android:exported
		ADDED from [:geolocator_android] /Users/mzito/Desktop/projects/2022 Knowledge/DVT-Test/Flutter-Weather-App/build/geolocator_android/intermediates/merged_manifest/release/AndroidManifest.xml:13:13-37
	android:foregroundServiceType
		ADDED from [:geolocator_android] /Users/mzito/Desktop/projects/2022 Knowledge/DVT-Test/Flutter-Weather-App/build/geolocator_android/intermediates/merged_manifest/release/AndroidManifest.xml:14:13-53
	android:name
		ADDED from [:geolocator_android] /Users/mzito/Desktop/projects/2022 Knowledge/DVT-Test/Flutter-Weather-App/build/geolocator_android/intermediates/merged_manifest/release/AndroidManifest.xml:11:13-77
uses-library#androidx.window.extensions
ADDED from [androidx.window:window:1.0.0-beta04] /Users/mzito/.gradle/caches/transforms-3/101f929c990b91a0ec99476176aa9a01/transformed/jetified-window-1.0.0-beta04/AndroidManifest.xml:25:9-27:40
	android:required
		ADDED from [androidx.window:window:1.0.0-beta04] /Users/mzito/.gradle/caches/transforms-3/101f929c990b91a0ec99476176aa9a01/transformed/jetified-window-1.0.0-beta04/AndroidManifest.xml:27:13-37
	android:name
		ADDED from [androidx.window:window:1.0.0-beta04] /Users/mzito/.gradle/caches/transforms-3/101f929c990b91a0ec99476176aa9a01/transformed/jetified-window-1.0.0-beta04/AndroidManifest.xml:26:13-54
uses-library#androidx.window.sidecar
ADDED from [androidx.window:window:1.0.0-beta04] /Users/mzito/.gradle/caches/transforms-3/101f929c990b91a0ec99476176aa9a01/transformed/jetified-window-1.0.0-beta04/AndroidManifest.xml:28:9-30:40
	android:required
		ADDED from [androidx.window:window:1.0.0-beta04] /Users/mzito/.gradle/caches/transforms-3/101f929c990b91a0ec99476176aa9a01/transformed/jetified-window-1.0.0-beta04/AndroidManifest.xml:30:13-37
	android:name
		ADDED from [androidx.window:window:1.0.0-beta04] /Users/mzito/.gradle/caches/transforms-3/101f929c990b91a0ec99476176aa9a01/transformed/jetified-window-1.0.0-beta04/AndroidManifest.xml:29:13-51
activity#com.google.android.gms.common.api.GoogleApiActivity
ADDED from [com.google.android.gms:play-services-base:17.0.0] /Users/mzito/.gradle/caches/transforms-3/bcccf0c65e7eea9d8b784440db3290a2/transformed/jetified-play-services-base-17.0.0/AndroidManifest.xml:23:9-26:75
	android:exported
		ADDED from [com.google.android.gms:play-services-base:17.0.0] /Users/mzito/.gradle/caches/transforms-3/bcccf0c65e7eea9d8b784440db3290a2/transformed/jetified-play-services-base-17.0.0/AndroidManifest.xml:25:13-37
	android:theme
		ADDED from [com.google.android.gms:play-services-base:17.0.0] /Users/mzito/.gradle/caches/transforms-3/bcccf0c65e7eea9d8b784440db3290a2/transformed/jetified-play-services-base-17.0.0/AndroidManifest.xml:26:13-72
	android:name
		ADDED from [com.google.android.gms:play-services-base:17.0.0] /Users/mzito/.gradle/caches/transforms-3/bcccf0c65e7eea9d8b784440db3290a2/transformed/jetified-play-services-base-17.0.0/AndroidManifest.xml:24:13-79
meta-data#com.google.android.gms.version
ADDED from [com.google.android.gms:play-services-basement:17.0.0] /Users/mzito/.gradle/caches/transforms-3/b5ff225b6bf34a55f27f61a16a75a1de/transformed/jetified-play-services-basement-17.0.0/AndroidManifest.xml:23:9-25:69
	android:value
		ADDED from [com.google.android.gms:play-services-basement:17.0.0] /Users/mzito/.gradle/caches/transforms-3/b5ff225b6bf34a55f27f61a16a75a1de/transformed/jetified-play-services-basement-17.0.0/AndroidManifest.xml:25:13-66
	android:name
		ADDED from [com.google.android.gms:play-services-basement:17.0.0] /Users/mzito/.gradle/caches/transforms-3/b5ff225b6bf34a55f27f61a16a75a1de/transformed/jetified-play-services-basement-17.0.0/AndroidManifest.xml:24:13-58
